%YAML 1.1
%TAG !u! tag:unity3d.com,2011:
--- !u!114 &11400000
MonoBehaviour:
  m_ObjectHideFlags: 0
  m_CorrespondingSourceObject: {fileID: 0}
  m_PrefabInstance: {fileID: 0}
  m_PrefabAsset: {fileID: 0}
  m_GameObject: {fileID: 0}
  m_Enabled: 1
  m_EditorHideFlags: 0
  m_Script: {fileID: 11500000, guid: 54b1c66aab972c24bbb2ce63b0125b64, type: 3}
  m_Name: ZombieCase 1
  m_EditorClassIdentifier: 
  puzzleFieldSize: 3
  itemsArray:
  - {fileID: 6203800548341700790, guid: 6ceefd1ed7286b248a889c7e6c31cf2e, type: 3}
  - {fileID: 7620417351313412434, guid: 77c18339825f55249b584e650fd3850c, type: 3}
  - {fileID: 6182042465707984130, guid: 6d879968255ea1c489f73025bf72bc3b, type: 3}
  minDiamondsCount: 50
  maxDiamondsCount: 150
